A relatively straightforward example of a take home data assignment
…
# add peak hours?
df <- df %>% 
  mutate(hour = hour(t),
         month = month(t), 
         day = lubridate::day(t), 
         week = lubridate::week(t),
         dow = lubridate::wday(t, label=TRUE, week_start=1),
         daytype = ifelse(dow %in% c('Sat', 'Sun'), 'weekend', 'weekday'),
         year = year(t),
         date = date(t)
         )
df

## # A tibble: 22,447 x 9
##    t                    hour month   day  week dow   daytype  year date      
##    <dttm>              <int> <dbl> <int> <dbl> <ord> <chr>   <dbl> <date>    
##  1 2012-03-01 00:05:55     0     3     1     9 Thu   weekday  2012 2012-03-01
##  2 2012-03-01 00:06:23     0     3     1     9 Thu   weekday  2012 2012-03-01
##  3 2012-03-01 00:06:52     0     3     1     9 Thu   weekday  2012 2012-03-01
##  4 2012-03-01 00:11:23     0     3     1     9 Thu   weekday  2012 2012-03-01
##  5 2012-03-01 00:12:47     0     3     1     9 Thu   weekday  2012 2012-03-01
##  6 2012-03-01 00:12:54     0     3     1     9 Thu   weekday  2012 2012-03-01
##  7 2012-03-01 00:16:14     0     3     1     9 Thu   weekday  2012 2012-03-01
##  8 2012-03-01 00:17:31     0     3     1     9 Thu   weekday  2012 2012-03-01
##  9 2012-03-01 00:21:23     0     3     1     9 Thu   weekday  2012 2012-03-01
## 10 2012-03-01 00:21:26     0     3     1     9 Thu   weekday  2012 2012-03-01
## #  with 22,437 more rows
…
